^C:\USERS\LIM PIN\DOCUMENTS\SCHOOL WORK\FYP THINGS\APPLICATION MOCK UP\SOURCECODE\TEST1\TEST1\STDAFX.CPP
/c /ZI /nologo /W3 /WX- /diagnostics:classic /sdl /Od /D _DEBUG /D _CONSOLE /D _UNICODE /D UNICODE /Gm /EHsc /RTC1 /MDd /GS /fp:precise /Zc:wchar_t /Zc:forScope /Zc:inline /Yc"stdafx.h" /Fp"X64\DEBUG\TEST1.PCH" /Fo"X64\DEBUG\\" /Fd"X64\DEBUG\VC141.PDB" /Gd /TP C:\USERS\LIM PIN\DOCUMENTS\SCHOOL WORK\FYP THINGS\APPLICATION MOCK UP\SOURCECODE\TEST1\TEST1\STDAFX.CPP
^C:\USERS\LIM PIN\DOCUMENTS\SCHOOL WORK\FYP THINGS\APPLICATION MOCK UP\SOURCECODE\TEST1\TEST1\BMI.CPP
/c /ZI /nologo /W3 /WX- /diagnostics:classic /sdl /Od /D _DEBUG /D _CONSOLE /D _UNICODE /D UNICODE /Gm /EHsc /RTC1 /MDd /GS /fp:precise /Zc:wchar_t /Zc:forScope /Zc:inline /Yu"stdafx.h" /Fp"X64\DEBUG\TEST1.PCH" /Fo"X64\DEBUG\\" /Fd"X64\DEBUG\VC141.PDB" /Gd /TP C:\USERS\LIM PIN\DOCUMENTS\SCHOOL WORK\FYP THINGS\APPLICATION MOCK UP\SOURCECODE\TEST1\TEST1\BMI.CPP
^C:\USERS\LIM PIN\DOCUMENTS\SCHOOL WORK\FYP THINGS\APPLICATION MOCK UP\SOURCECODE\TEST1\TEST1\TEST1.CPP
/c /ZI /nologo /W3 /WX- /diagnostics:classic /sdl /Od /D _DEBUG /D _CONSOLE /D _UNICODE /D UNICODE /Gm /EHsc /RTC1 /MDd /GS /fp:precise /Zc:wchar_t /Zc:forScope /Zc:inline /Yu"stdafx.h" /Fp"X64\DEBUG\TEST1.PCH" /Fo"X64\DEBUG\\" /Fd"X64\DEBUG\VC141.PDB" /Gd /TP C:\USERS\LIM PIN\DOCUMENTS\SCHOOL WORK\FYP THINGS\APPLICATION MOCK UP\SOURCECODE\TEST1\TEST1\TEST1.CPP
