custermer_form 
cb_fc1(page 1)
cb_fc2(page 1)
cb_fc3(page 1)
cb_fc4(page 1)
cb_fc5(page 1)
cb_fc6(page 1)
lb_welcome(page 1)
lb_choose(page 1)
lb_username (page 1)
cb_back(page 1)
lb_choosevendor (page 2 )
lb_foodcourtno (page 2)
lsb_foodvendor (page 2)
frm_fc1_chickenrice (page 3)
ob_fc1_chicken_1 (page 3) top :18
ob_fc1_chicken_2 (page 3) top : 36
ob_fc1_chicken_3 (page 3) top :48
ob_fc1_chicken_4 (page 3) top :66
frm_objectform (page 3 /4)
lb_ingredent1 (page 3 /4)
lb_ingredent2 (page 3 /4)  
lb_ingredent3 (page 3 /4)
lb_ingredent4 (page 3 /4)
lb_ingredent5 (page 3 /4)
